Chapter 8 Example | Statistical Analysis in Metabolomics
…
lasso_res$coefficients

## # A tibble: 21 × 2
##    feature     coefficient
##    <chr>             <dbl>
##  1 (Intercept)     -0.207 
##  2 MEDL01844       -0.0577
##  3 MEDN0366        -0.478 
##  4 MEDN1135         0.542 
##  5 MEDN1285        -0.152 
##  6 MEDP0006         0.208 
##  7 MEDP0089        -0.228 
##  8 MEDP0151         0.329 
##  9 MEDP0295        -0.134 
## 10 MEDP0401        -0.220 
## # … with 11 more rows
…
