Chapter 6 Multivariate analysis | Data Analysis in Metabolomics
…
ridge_res$coefficients

## # A tibble: 49 × 2
##    feature     coefficient
##    <chr>             <dbl>
##  1 (Intercept)    -0.269  
##  2 M_52603         0.0416 
##  3 M_19130        -0.0311 
##  4 M_39270        -0.0294 
##  5 M_35186         0.0101 
##  6 M_34214         0.0329 
##  7 M_49617        -0.214  
##  8 M_52710        -0.186  
##  9 M_53189         0.00193
## 10 M_34419         0.0266 
## # … with 39 more rows
…
