Chapter 3 Statistical Analysis | Data Analysis in Metabolomics
…
3.4.12 Correlation Heatmaps

poma_cor <- PomaCorr(se_processed_subset, label_size = 8, coeff = 0.6)
poma_cor$correlations

## # A tibble: 13,861 × 5
##    feature1 feature2     R   pvalue      FDR
##    <chr>    <chr>    <dbl>    <dbl>    <dbl>
##  1 M_52465  M_52466  0.955 3.19e-14 4.42e-10
##  2 M_44621  M_39270  0.946 3.36e-13 2.33e- 9
##  3 M_52610  M_52611  0.941 9.33e-13 4.31e- 9
##  4 M_33971  M_33972  0.939 1.39e-12 4.83e- 9
##  5 M_52464  M_52447  0.936 2.33e-12 6.10e- 9
##  6 M_52687  M_42449  0.935 2.64e-12 6.10e- 9
##  7 M_22036  M_63120  0.926 1.22e-11 2.41e- 8
##  8 M_38768  M_33972  0.925 1.42e-11 2.46e- 8
##  9 M_42449  M_52446  0.921 2.49e-11 3.83e- 8
## 10 M_44621  M_39271  0.920 2.97e-11 4.12e- 8
## # ℹ 13,851 more rows
…
ridge_res$coefficients

## # A tibble: 168 × 2
##    feature     coefficient
##    <chr>             <dbl>
##  1 (Intercept)   -0.118   
##  2 M_38768        0.0163  
##  3 M_38296        0.0426  
##  4 M_63436        0.0351  
##  5 M_57814        0.00998 
##  6 M_52603       -0.0159  
##  7 M_53174       -0.000721
##  8 M_19130       -0.0635  
##  9 M_34404       -0.0326  
## 10 M_32391       -0.0262  
## # ℹ 158 more rows
…
